…
```r
library(tidyverse)
library(eurostat)
# devtools::install_github("zgfabian/kimberlite")
library(kimberlite)
```
 

```r
df <- read_csv("_data/isoc_ci_ifp_iu/isoc_ci_ifp_iu_1_Data.csv")
df
```

```
## # A tibble: 6,720 x 7
##     TIME GEO        INDIC_IS       UNIT          IND_TYPE Value `Flag and Footn…
##    <dbl> <chr>      <chr>          <chr>         <chr>    <chr> <chr>           
##  1  2011 European … Last internet… Percentage o… All Ind… 69    <NA>            
##  2  2011 European … Last internet… Percentage o… All Ind… :     <NA>            
##  3  2011 European … Last internet… Percentage o… All Ind… 2     <NA>            
##  4  2011 European … Last internet… Percentage o… All Ind… 3     <NA>            
##  5  2011 European … Last internet… Percentage o… All Ind… 71    <NA>            
##  6  2011 European … Last internet… Percentage o… All Ind… :     <NA>            
##  7  2011 European … Last internet… Percentage o… All Ind… 2     <NA>            
##  8  2011 European … Last internet… Percentage o… All Ind… :     <NA>            
##  9  2011 European … Individuals w… Percentage o… All Ind… 73    <NA>            
## 10  2011 European … Individuals w… Percentage o… All Ind… :     <NA>            
## # … with 6,710 more rows
```
…
