…
References: [Tutorial for the eurostat R
package](http://ropengov.github.io/eurostat/articles/website/eurostat_tutorial.html)

Codes for the dataset can be searched also from the [Eurostat
database](https://ec.europa.eu/eurostat/data/database).

``` r
# Countries and Country Codes
as_tibble(eu_countries)
```

    ## # A tibble: 28 x 3
    ##    code  name     label                                           
    ##    <chr> <chr>    <chr>                                           
    ##  1 BE    Belgium  Belgium                                         
    ##  2 BG    Bulgaria Bulgaria                                        
    ##  3 CZ    Czechia  Czechia                                         
    ##  4 DK    Denmark  Denmark                                         
    ##  5 DE    Germany  Germany (until 1990 former territory of the FRG)
    ##  6 EE    Estonia  Estonia                                         
    ##  7 IE    Ireland  Ireland                                         
    ##  8 EL    Greece   Greece                                          
    ##  9 ES    Spain    Spain                                           
    ## 10 FR    France   France                                          
    ## # … with 18 more rows
…
