…
>Severe material deprivation rate is defined as the enforced inability to pay for at least four of the above-mentioned items. 



```r
# Countries and Country Codes
as_tibble(eu_countries)
```

```
## # A tibble: 28 x 3
##    code  name     label                                           
##    <chr> <chr>    <chr>                                           
##  1 BE    Belgium  Belgium                                         
##  2 BG    Bulgaria Bulgaria                                        
##  3 CZ    Czechia  Czechia                                         
##  4 DK    Denmark  Denmark                                         
##  5 DE    Germany  Germany (until 1990 former territory of the FRG)
##  6 EE    Estonia  Estonia                                         
##  7 IE    Ireland  Ireland                                         
##  8 EL    Greece   Greece                                          
##  9 ES    Spain    Spain                                           
## 10 FR    France   France                                          
## # … with 18 more rows
```
…
```
## Table ilc_mddd12 cached at /tmp/RtmpCFAah2/eurostat/ilc_mddd12_num_code_FF.rds
```

```r
v4 <- c("CZ", "HU", "PL", "SK")
df <- df %>%
  filter(time >= 2005 & wstatus == "POP" &
         age == "Y_GE18" & geo %in% v4 &
         sex == "T")
df
```

```
## # A tibble: 60 x 6
##    wstatus age    sex   geo    time values
##    <chr>   <chr>  <chr> <chr> <dbl>  <dbl>
##  1 POP     Y_GE18 T     CZ     2019    2.7
##  2 POP     Y_GE18 T     HU     2019    7.8
##  3 POP     Y_GE18 T     PL     2019    3.7
##  4 POP     Y_GE18 T     SK     2019    7.8
##  5 POP     Y_GE18 T     CZ     2018    2.7
##  6 POP     Y_GE18 T     HU     2018    9  
##  7 POP     Y_GE18 T     PL     2018    4.8
##  8 POP     Y_GE18 T     SK     2018    6.5
##  9 POP     Y_GE18 T     CZ     2017    3.5
## 10 POP     Y_GE18 T     HU     2017   13.4
## # … with 50 more rows
```
…
